State,ZipCode,TaxRegionName,TaxRegionCode,CombinedRate,StateRate,CountyRate,CityRate,SpecialRate
OK,73001,CADDO COUNTY,BJTI,0.06,0.045,0.015,0,0
OK,73002,GRADY COUNTY,BJZY,0.05,0.045,0.005,0,0
OK,73003,EDMOND,BKKO,0.0825,0.045,0,0.0375,0
OK,73004,GRADY COUNTY,BJZY,0.05,0.045,0.005,0,0
OK,73005,ANADARKO,BJTJ,0.095,0.045,0.015,0.035,0
OK,73006,APACHE TOWN,BJTK,0.095,0.045,0.015,0.035,0
OK,73007,EDMOND,BKKO,0.0825,0.045,0,0.0375,0
OK,73008,BETHANY,BKKL,0.085,0.045,0,0.04,0
OK,73009,BINGER TOWN,BJTM,0.1,0.045,0.015,0.04,0
OK,73010,BLANCHARD (MCCLAIN CO),BKHL,0.09,0.045,0.005,0.04,0
OK,73011,GRADY COUNTY,BJZY,0.05,0.045,0.005,0,0
OK,73012,OKLAHOMA CITY (OKLAHOMA CO),BKKY,0.08375,0.045,0,0.03875,0
OK,73013,OKLAHOMA CITY (OKLAHOMA CO),BKKY,0.08375,0.045,0,0.03875,0
OK,73014,CANADIAN COUNTY,BJTX,0.0485,0.045,0.0035,0,0
OK,73015,CARNEGIE TOWN,BJTN,0.1,0.045,0.015,0.04,0
OK,73016,CASHION (KINGFISHER CO),BKDO,0.0975,0.045,0.0125,0.04,0
OK,73017,GRADY COUNTY,BJZY,0.05,0.045,0.005,0,0
OK,73018,CHICKASHA,BKAC,0.08969,0.045,0.005,0.03969,0
OK,73019,NORMAN,BJVW,0.0825,0.045,0.0025,0.035,0
OK,73020,CHOCTAW,BKKM,0.0875,0.045,0,0.0425,0
OK,73021,WASHITA COUNTY,BKSQ,0.065,0.045,0.02,0,0
OK,73022,EL RENO,BJUA,0.0885,0.045,0.0035,0.04,0
OK,73023,CHICKASHA,BKAC,0.08969,0.045,0.005,0.03969,0
OK,73024,CORN TOWN,BKSX,0.085,0.045,0.02,0.02,0
OK,73025,LOGAN COUNTY,BKFR,0.0525,0.045,0.0075,0,0
OK,73026,NORMAN,BJVW,0.0825,0.045,0.0025,0.035,0
OK,73027,PAYNE COUNTY,BKMZ,0.05313,0.045,0.00813,0,0
OK,73028,LOGAN COUNTY,BKFR,0.0525,0.045,0.0075,0,0
OK,73029,CADDO COUNTY,BJTI,0.06,0.045,0.015,0,0
OK,73030,DAVIS (MURRAY CO),BKIV,0.095,0.045,0.02,0.03,0
OK,73031,DIBBLE TOWN,BKHO,0.1,0.045,0.005,0.05,0
OK,73032,DOUGHERTY TOWN,BKIU,0.085,0.045,0.02,0.02,0
OK,73033,EAKLY TOWN,BJTQ,0.09,0.045,0.015,0.03,0
OK,73034,EDMOND,BKKO,0.0825,0.045,0,0.0375,0
OK,73036,EL RENO,BJUA,0.0885,0.045,0.0035,0.04,0
OK,73038,FORT COBB TOWN,BJTR,0.1,0.045,0.015,0.04,0
OK,73039,DAVIS (MURRAY CO),BKIV,0.095,0.045,0.02,0.03,0
OK,73040,GEARY (BLAINE CO),BJSK,0.0825,0.045,0.0075,0.03,0
OK,73041,GOTEBO TOWN,BKDX,0.09,0.045,0.005,0.04,0
OK,73042,GRACEMONT TOWN,BJTS,0.1,0.045,0.015,0.04,0
OK,73043,GREENFIELD TOWN,BJSL,0.0825,0.045,0.0075,0.03,0
OK,73044,LOGAN COUNTY,BKFR,0.0525,0.045,0.0075,0,0
OK,73045,HARRAH,BKKQ,0.085,0.045,0,0.04,0
OK,73047,HINTON TOWN,BJTT,0.09,0.045,0.015,0.03,0
OK,73048,HYDRO (CADDO CO),BJTU,0.1,0.045,0.015,0.04,0
OK,73049,OKLAHOMA CITY (OKLAHOMA CO),BKKY,0.08375,0.045,0,0.03875,0
OK,73050,LANGSTON TOWN,BKFW,0.0925,0.045,0.0075,0.04,0
OK,73051,CLEVELAND COUNTY,BJVR,0.0475,0.045,0.0025,0,0
OK,73052,LINDSAY,BJZR,0.0925,0.045,0.0075,0.04,0
OK,73053,CADDO COUNTY,BJTI,0.06,0.045,0.015,0,0
OK,73054,OKLAHOMA STATE,BJQT,0.045,0.045,0,0,0
OK,73055,MARLOW,BKQT,0.087,0.045,0.007,0.035,0
OK,73056,MARSHALL TOWN,BKFX,0.0925,0.045,0.0075,0.04,0
OK,73057,GARVIN COUNTY,BJZM,0.0525,0.045,0.0075,0,0
OK,73058,LOGAN COUNTY,BKFR,0.0525,0.045,0.0075,0,0
OK,73059,MINCO,BKAD,0.09,0.045,0.005,0.04,0
OK,73061,NOBLE COUNTY,BKJL,0.06,0.045,0.015,0,0
OK,73062,MOUNTAIN VIEW TOWN,BKEB,0.09,0.045,0.005,0.04,0
OK,73063,MULHALL TOWN,BKFZ,0.0825,0.045,0.0075,0.03,0
OK,73064,MUSTANG,BJUC,0.0885,0.045,0.0035,0.04,0
OK,73065,NEWCASTLE,BKHQ,0.09,0.045,0.005,0.04,0
OK,73066,NICOMA PARK,BKKW,0.095,0.045,0,0.05,0
OK,73067,NINNEKAH TOWN,BKAE,0.08,0.045,0.005,0.03,0
OK,73068,NOBLE,BJVV,0.0875,0.045,0.0025,0.04,0
OK,73069,NORMAN,BJVW,0.0825,0.045,0.0025,0.035,0
OK,73070,NORMAN,BJVW,0.0825,0.045,0.0025,0.035,0
OK,73071,NORMAN,BJVW,0.0825,0.045,0.0025,0.035,0
OK,73072,NORMAN,BJVW,0.0825,0.045,0.0025,0.035,0
OK,73073,LOGAN COUNTY,BKFR,0.0525,0.045,0.0075,0,0
OK,73074,PAOLI TOWN,BJZT,0.0825,0.045,0.0075,0.03,0
OK,73075,PAULS VALLEY,BJZU,0.0975,0.045,0.0075,0.045,0
OK,73077,PERRY,BKJQ,0.0925,0.045,0.015,0.0325,0
OK,73078,PIEDMONT (CANADIAN CO),BJUF,0.0985,0.045,0.0035,0.05,0
OK,73079,POCASSET TOWN,BKAG,0.065,0.045,0.005,0.015,0
OK,73080,PURCELL (MCCLAIN CO),BKHS,0.09,0.045,0.005,0.04,0
OK,73082,GRADY COUNTY,BJZY,0.05,0.045,0.005,0,0
OK,73083,EDMOND,BKKO,0.0825,0.045,0,0.0375,0
OK,73084,OKLAHOMA CITY (OKLAHOMA CO),BKKY,0.08375,0.045,0,0.03875,0
OK,73085,YUKON,BJUH,0.0885,0.045,0.0035,0.04,0
OK,73086,MURRAY COUNTY,BKIT,0.065,0.045,0.02,0,0
OK,73089,TUTTLE,BKAI,0.09,0.045,0.005,0.04,0
OK,73090,UNION TOWN,BJUG,0.0885,0.045,0.0035,0.04,0
OK,73092,GRADY COUNTY,BJZY,0.05,0.045,0.005,0,0
OK,73093,GOLDSBY TOWN,BKHP,0.085,0.045,0.005,0.035,0
OK,73095,MCCLAIN COUNTY,BKHK,0.05,0.045,0.005,0,0
OK,73096,WEATHERFORD,BJXY,0.09,0.045,0.005,0.04,0
OK,73097,OKLAHOMA CITY (OKLAHOMA CO),BKKY,0.08375,0.045,0,0.03875,0
OK,73098,WYNNEWOOD,BJZX,0.0925,0.045,0.0075,0.04,0
OK,73099,OKLAHOMA CITY (CANADIAN CO),BJUE,0.08725,0.045,0.0035,0.03875,0
OK,73101,OKLAHOMA CITY (OKLAHOMA CO),BKKY,0.08375,0.045,0,0.03875,0
OK,73102,OKLAHOMA CITY (OKLAHOMA CO),BKKY,0.08375,0.045,0,0.03875,0
OK,73103,OKLAHOMA CITY (OKLAHOMA CO),BKKY,0.08375,0.045,0,0.03875,0
OK,73104,OKLAHOMA CITY (OKLAHOMA CO),BKKY,0.08375,0.045,0,0.03875,0
OK,73105,OKLAHOMA CITY (OKLAHOMA CO),BKKY,0.08375,0.045,0,0.03875,0
OK,73106,OKLAHOMA CITY (OKLAHOMA CO),BKKY,0.08375,0.045,0,0.03875,0
OK,73107,OKLAHOMA CITY (OKLAHOMA CO),BKKY,0.08375,0.045,0,0.03875,0
OK,73108,OKLAHOMA CITY (OKLAHOMA CO),BKKY,0.08375,0.045,0,0.03875,0
OK,73109,OKLAHOMA CITY (OKLAHOMA CO),BKKY,0.08375,0.045,0,0.03875,0
OK,73110,MIDWEST,BKKU,0.0835,0.045,0,0.0385,0
OK,73111,OKLAHOMA CITY (OKLAHOMA CO),BKKY,0.08375,0.045,0,0.03875,0
OK,73112,OKLAHOMA CITY (OKLAHOMA CO),BKKY,0.08375,0.045,0,0.03875,0
OK,73113,OKLAHOMA CITY (OKLAHOMA CO),BKKY,0.08375,0.045,0,0.03875,0
OK,73114,OKLAHOMA CITY (OKLAHOMA CO),BKKY,0.08375,0.045,0,0.03875,0
OK,73115,DEL,BKKN,0.08,0.045,0,0.035,0
OK,73116,OKLAHOMA CITY (OKLAHOMA CO),BKKY,0.08375,0.045,0,0.03875,0
OK,73117,OKLAHOMA CITY (OKLAHOMA CO),BKKY,0.08375,0.045,0,0.03875,0
OK,73118,OKLAHOMA CITY (OKLAHOMA CO),BKKY,0.08375,0.045,0,0.03875,0
OK,73119,OKLAHOMA CITY (OKLAHOMA CO),BKKY,0.08375,0.045,0,0.03875,0
OK,73120,OKLAHOMA CITY (OKLAHOMA CO),BKKY,0.08375,0.045,0,0.03875,0
OK,73121,OKLAHOMA CITY (OKLAHOMA CO),BKKY,0.08375,0.045,0,0.03875,0
OK,73122,WARR ACRES,BKLD,0.085,0.045,0,0.04,0
OK,73123,WARR ACRES,BKLD,0.085,0.045,0,0.04,0
OK,73125,OKLAHOMA CITY (OKLAHOMA CO),BKKY,0.08375,0.045,0,0.03875,0
OK,73127,OKLAHOMA CITY (OKLAHOMA CO),BKKY,0.08375,0.045,0,0.03875,0
OK,73128,OKLAHOMA CITY (OKLAHOMA CO),BKKY,0.08375,0.045,0,0.03875,0
OK,73129,OKLAHOMA CITY (OKLAHOMA CO),BKKY,0.08375,0.045,0,0.03875,0
OK,73130,MIDWEST,BKKU,0.0835,0.045,0,0.0385,0
OK,73131,OKLAHOMA CITY (OKLAHOMA CO),BKKY,0.08375,0.045,0,0.03875,0
OK,73132,OKLAHOMA CITY (OKLAHOMA CO),BKKY,0.08375,0.045,0,0.03875,0
OK,73134,OKLAHOMA CITY (OKLAHOMA CO),BKKY,0.08375,0.045,0,0.03875,0
OK,73135,OKLAHOMA CITY (OKLAHOMA CO),BKKY,0.08375,0.045,0,0.03875,0
OK,73136,OKLAHOMA CITY (OKLAHOMA CO),BKKY,0.08375,0.045,0,0.03875,0
OK,73137,OKLAHOMA CITY (OKLAHOMA CO),BKKY,0.08375,0.045,0,0.03875,0
OK,73139,OKLAHOMA CITY (OKLAHOMA CO),BKKY,0.08375,0.045,0,0.03875,0
OK,73140,MIDWEST,BKKU,0.0835,0.045,0,0.0385,0
OK,73141,MIDWEST,BKKU,0.0835,0.045,0,0.0385,0
OK,73142,OKLAHOMA CITY (OKLAHOMA CO),BKKY,0.08375,0.045,0,0.03875,0
OK,73143,OKLAHOMA CITY (OKLAHOMA CO),BKKY,0.08375,0.045,0,0.03875,0
OK,73144,OKLAHOMA CITY (OKLAHOMA CO),BKKY,0.08375,0.045,0,0.03875,0
OK,73145,OKLAHOMA CITY (OKLAHOMA CO),BKKY,0.08375,0.045,0,0.03875,0
OK,73146,OKLAHOMA CITY (OKLAHOMA CO),BKKY,0.08375,0.045,0,0.03875,0
OK,73147,OKLAHOMA CITY (OKLAHOMA CO),BKKY,0.08375,0.045,0,0.03875,0
OK,73148,OKLAHOMA CITY (OKLAHOMA CO),BKKY,0.08375,0.045,0,0.03875,0
OK,73149,OKLAHOMA CITY (OKLAHOMA CO),BKKY,0.08375,0.045,0,0.03875,0
OK,73150,OKLAHOMA CITY (OKLAHOMA CO),BKKY,0.08375,0.045,0,0.03875,0
OK,73151,OKLAHOMA CITY (OKLAHOMA CO),BKKY,0.08375,0.045,0,0.03875,0
OK,73152,OKLAHOMA CITY (OKLAHOMA CO),BKKY,0.08375,0.045,0,0.03875,0
OK,73153,OKLAHOMA CITY (CLEVELAND CO),BJVX,0.08625,0.045,0.0025,0.03875,0
OK,73154,OKLAHOMA CITY (OKLAHOMA CO),BKKY,0.08375,0.045,0,0.03875,0
OK,73155,OKLAHOMA CITY (OKLAHOMA CO),BKKY,0.08375,0.045,0,0.03875,0
OK,73156,THE VILLAGE,BKLA,0.085,0.045,0,0.04,0
OK,73157,OKLAHOMA CITY (OKLAHOMA CO),BKKY,0.08375,0.045,0,0.03875,0
OK,73159,OKLAHOMA CITY (OKLAHOMA CO),BKKY,0.08375,0.045,0,0.03875,0
OK,73160,MOORE,BJVU,0.085,0.045,0.0025,0.0375,0
OK,73162,OKLAHOMA CITY (OKLAHOMA CO),BKKY,0.08375,0.045,0,0.03875,0
OK,73163,OKLAHOMA CITY (OKLAHOMA CO),BKKY,0.08375,0.045,0,0.03875,0
OK,73164,OKLAHOMA CITY (OKLAHOMA CO),BKKY,0.08375,0.045,0,0.03875,0
OK,73165,OKLAHOMA CITY (CLEVELAND CO),BJVX,0.08625,0.045,0.0025,0.03875,0
OK,73167,OKLAHOMA CITY (OKLAHOMA CO),BKKY,0.08375,0.045,0,0.03875,0
OK,73169,OKLAHOMA CITY (OKLAHOMA CO),BKKY,0.08375,0.045,0,0.03875,0
OK,73170,OKLAHOMA CITY (CLEVELAND CO),BJVX,0.08625,0.045,0.0025,0.03875,0
OK,73172,OKLAHOMA CITY (OKLAHOMA CO),BKKY,0.08375,0.045,0,0.03875,0
OK,73173,OKLAHOMA CITY (CLEVELAND CO),BJVX,0.08625,0.045,0.0025,0.03875,0
OK,73178,OKLAHOMA CITY (OKLAHOMA CO),BKKY,0.08375,0.045,0,0.03875,0
OK,73179,OKLAHOMA CITY (OKLAHOMA CO),BKKY,0.08375,0.045,0,0.03875,0
OK,73185,OKLAHOMA CITY (OKLAHOMA CO),BKKY,0.08375,0.045,0,0.03875,0
OK,73189,OKLAHOMA CITY (CLEVELAND CO),BJVX,0.08625,0.045,0.0025,0.03875,0
OK,73190,OKLAHOMA CITY (OKLAHOMA CO),BKKY,0.08375,0.045,0,0.03875,0
OK,73194,OKLAHOMA CITY (OKLAHOMA CO),BKKY,0.08375,0.045,0,0.03875,0
OK,73195,OKLAHOMA CITY (OKLAHOMA CO),BKKY,0.08375,0.045,0,0.03875,0
OK,73401,ARDMORE,BJUJ,0.09,0.045,0.0075,0.0375,0
OK,73402,ARDMORE,BJUJ,0.09,0.045,0.0075,0.0375,0
OK,73403,ARDMORE,BJUJ,0.09,0.045,0.0075,0.0375,0
OK,73425,STEPHENS COUNTY,BKQN,0.052,0.045,0.007,0,0
OK,73430,LOVE COUNTY,BKGC,0.065,0.045,0.02,0,0
OK,73432,JOHNSTON COUNTY,BKCU,0.06,0.045,0.015,0,0
OK,73433,ELMORE TOWN,BJZO,0.0925,0.045,0.0075,0.04,0
OK,73434,FOSTER,BJZP,0.0925,0.045,0.0075,0.04,0
OK,73435,CARTER COUNTY,BJUI,0.0525,0.045,0.0075,0,0
OK,73436,GENE AUTRY TOWN,BJUN,0.0825,0.045,0.0075,0.03,0
OK,73437,CARTER COUNTY,BJUI,0.0525,0.045,0.0075,0,0
OK,73438,HEALDTON,BJUO,0.0975,0.045,0.0075,0.045,0
OK,73439,MARSHALL COUNTY,BKGQ,0.0625,0.045,0.0175,0,0
OK,73440,MARSHALL COUNTY,BKGQ,0.0625,0.045,0.0175,0,0
OK,73441,LOVE COUNTY,BKGC,0.065,0.045,0.02,0,0
OK,73442,LOCO TOWN,BKQS,0.082,0.045,0.007,0.03,0
OK,73443,LONE GROVE,BJUP,0.0925,0.045,0.0075,0.04,0
OK,73444,GARVIN COUNTY,BJZM,0.0525,0.045,0.0075,0,0
OK,73446,MADILL,BKGT,0.0925,0.045,0.0175,0.03,0
OK,73447,JOHNSTON COUNTY,BKCU,0.06,0.045,0.015,0,0
OK,73448,MARIETTA,BKGF,0.095,0.045,0.02,0.03,0
OK,73449,BRYAN COUNTY,BJSS,0.05,0.045,0.005,0,0
OK,73450,JOHNSTON COUNTY,BKCU,0.06,0.045,0.015,0,0
OK,73453,LOVE COUNTY,BKGC,0.065,0.045,0.02,0,0
OK,73455,RAVIA TOWN,BKDC,0.09,0.045,0.015,0.03,0
OK,73456,JEFFERSON COUNTY,BKCL,0.065,0.045,0.02,0,0
OK,73458,CARTER COUNTY,BJUI,0.0525,0.045,0.0075,0,0
OK,73459,LOVE COUNTY,BKGC,0.065,0.045,0.02,0,0
OK,73460,TISHOMINGO,BKDD,0.09,0.045,0.015,0.03,0
OK,73461,WAPANUCKA TOWN,BKDE,0.075,0.045,0.015,0.015,0
OK,73463,CARTER COUNTY,BJUI,0.0525,0.045,0.0075,0,0
OK,73481,CARTER COUNTY,BJUI,0.0525,0.045,0.0075,0,0
OK,73487,TATUMS TOWN,BJUS,0.1025,0.045,0.0075,0.05,0
OK,73488,CARTER COUNTY,BJUI,0.0525,0.045,0.0075,0,0
OK,73491,VELMA TOWN,BKQU,0.092,0.045,0.007,0.04,0
OK,73501,LAWTON,BJWO,0.09,0.045,0.00375,0.04125,0
OK,73502,LAWTON,BJWO,0.09,0.045,0.00375,0.04125,0
OK,73503,COMANCHE COUNTY,BJWF,0.04875,0.045,0.00375,0,0
OK,73505,LAWTON,BJWO,0.09,0.045,0.00375,0.04125,0
OK,73506,LAWTON,BJWO,0.09,0.045,0.00375,0.04125,0
OK,73507,LAWTON,BJWO,0.09,0.045,0.00375,0.04125,0
OK,73520,ADDINGTON TOWN,BKCM,0.085,0.045,0.02,0.02,0
OK,73521,ALTUS,BKCB,0.0875,0.045,0.005,0.0375,0
OK,73522,ALTUS,BKCB,0.0875,0.045,0.005,0.0375,0
OK,73523,ALTUS,BKCB,0.0875,0.045,0.005,0.0375,0
OK,73526,JACKSON COUNTY,BKCA,0.05,0.045,0.005,0,0
OK,73527,COMANCHE COUNTY,BJWF,0.04875,0.045,0.00375,0,0
OK,73528,CHATTANOOGA TOWN,BJWH,0.07875,0.045,0.00375,0.03,0
OK,73529,COMANCHE,BKQP,0.092,0.045,0.007,0.04,0
OK,73530,TILLMAN COUNTY,BKRD,0.06,0.045,0.015,0,0
OK,73531,COTTON COUNTY,BJWS,0.065,0.045,0.02,0,0
OK,73532,JACKSON COUNTY,BKCA,0.05,0.045,0.005,0,0
OK,73533,DUNCAN,BKQR,0.087,0.045,0.007,0.035,0
OK,73536,DUNCAN,BKQR,0.087,0.045,0.007,0.035,0
OK,73537,ELDORADO TOWN,BKCG,0.07,0.045,0.005,0.02,0
OK,73538,COMANCHE COUNTY,BJWF,0.04875,0.045,0.00375,0,0
OK,73539,JACKSON COUNTY,BKCA,0.05,0.045,0.005,0,0
OK,73540,COMANCHE COUNTY,BJWF,0.04875,0.045,0.00375,0,0
OK,73541,COMANCHE COUNTY,BJWF,0.04875,0.045,0.00375,0,0
OK,73542,FREDERICK,BKRG,0.095,0.045,0.015,0.035,0
OK,73543,COMANCHE COUNTY,BJWF,0.04875,0.045,0.00375,0,0
OK,73544,HARMON COUNTY,BKAX,0.065,0.045,0.02,0,0
OK,73546,GRANDFIELD,BKRH,0.09,0.045,0.015,0.03,0
OK,73547,GRANITE TOWN,BKAU,0.095,0.045,0.02,0.03,0
OK,73548,HASTINGS TOWN,BKCO,0.095,0.045,0.02,0.03,0
OK,73549,JACKSON COUNTY,BKCA,0.05,0.045,0.005,0,0
OK,73550,HOLLIS,BKAZ,0.085,0.045,0.02,0.02,0
OK,73551,HOLLISTER TOWN,BKRI,0.09,0.045,0.015,0.03,0
OK,73552,COMANCHE COUNTY,BJWF,0.04875,0.045,0.00375,0,0
OK,73553,TILLMAN COUNTY,BKRD,0.06,0.045,0.015,0,0
OK,73554,MANGUM,BKAV,0.095,0.045,0.02,0.03,0
OK,73555,MANITOU,BKRK,0.09,0.045,0.015,0.03,0
OK,73556,JACKSON COUNTY,BKCA,0.05,0.045,0.005,0,0
OK,73557,MEDICINE PARK TOWN,BJWP,0.08625,0.045,0.00375,0.0375,0
OK,73558,COMANCHE COUNTY,BJWF,0.04875,0.045,0.00375,0,0
OK,73559,MOUNTAIN PARK TOWN,BKEA,0.08,0.045,0.005,0.03,0
OK,73560,JACKSON COUNTY,BKCA,0.05,0.045,0.005,0,0
OK,73561,JEFFERSON COUNTY,BKCL,0.065,0.045,0.02,0,0
OK,73562,COTTON COUNTY,BJWS,0.065,0.045,0.02,0,0
OK,73564,ROOSEVELT TOWN,BKEC,0.08,0.045,0.005,0.03,0
OK,73565,RYAN TOWN,BKCR,0.095,0.045,0.02,0.03,0
OK,73566,SNYDER,BKED,0.09,0.045,0.005,0.04,0
OK,73567,STERLING TOWN,BJWR,0.07875,0.045,0.00375,0.03,0
OK,73568,TEMPLE TOWN,BJWV,0.095,0.045,0.02,0.03,0
OK,73569,TERRAL TOWN,BKCS,0.095,0.045,0.02,0.03,0
OK,73570,TILLMAN COUNTY,BKRD,0.06,0.045,0.015,0,0
OK,73571,HARMON COUNTY,BKAX,0.065,0.045,0.02,0,0
OK,73572,WALTERS,BJWW,0.095,0.045,0.02,0.03,0
OK,73573,WAURIKA,BKCT,0.095,0.045,0.02,0.03,0
OK,73601,CLINTON,BJXU,0.095,0.045,0.005,0.045,0
OK,73620,ARAPAHO TOWN,BJXS,0.08,0.045,0.005,0.03,0
OK,73622,BESSIE TOWN,BKSR,0.085,0.045,0.02,0.02,0
OK,73624,BURNS FLAT TOWN,BKSS,0.105,0.045,0.02,0.04,0
OK,73625,BUTLER TOWN,BJXT,0.08,0.045,0.005,0.03,0
OK,73626,CANUTE TOWN,BKST,0.105,0.045,0.02,0.04,0
OK,73627,BECKHAM COUNTY,BJSB,0.048,0.045,0.003,0,0
OK,73628,CHEYENNE TOWN,BKPD,0.09,0.045,0.015,0.03,0
OK,73632,CORDELL,BKSW,0.095,0.045,0.02,0.03,0
OK,73638,ROGER MILLS COUNTY,BKPC,0.06,0.045,0.015,0,0
OK,73639,CUSTER TOWN,BJXV,0.09,0.045,0.005,0.04,0
OK,73641,DILL TOWN,BKSY,0.095,0.045,0.02,0.03,0
OK,73642,ROGER MILLS COUNTY,BKPC,0.06,0.045,0.015,0,0
OK,73644,ELK,BJSD,0.093,0.045,0.003,0.045,0
OK,73645,ERICK,BJSE,0.088,0.045,0.003,0.04,0
OK,73646,DEWEY COUNTY,BJYJ,0.0625,0.045,0.0175,0,0
OK,73647,BURNS FLAT TOWN,BKSS,0.105,0.045,0.02,0.04,0
OK,73650,HAMMON TOWN,BKPG,0.09,0.045,0.015,0.03,0
OK,73651,HOBART,BKDY,0.09,0.045,0.005,0.04,0
OK,73654,LEEDEY TOWN,BJYM,0.0925,0.045,0.0175,0.03,0
OK,73655,LONE WOLF TOWN,BKDZ,0.08,0.045,0.005,0.03,0
OK,73658,DEWEY COUNTY,BJYJ,0.0625,0.045,0.0175,0,0
OK,73659,DEWEY COUNTY,BJYJ,0.0625,0.045,0.0175,0,0
OK,73660,REYDON TOWN,BKPH,0.08,0.045,0.015,0.02,0
OK,73661,ROCKY TOWN,BKTA,0.095,0.045,0.02,0.03,0
OK,73662,SAYRE,BJSG,0.098,0.045,0.003,0.05,0
OK,73663,SEILING,BJYP,0.1025,0.045,0.0175,0.04,0
OK,73664,SENTINEL TOWN,BKTB,0.095,0.045,0.02,0.03,0
OK,73666,SWEETWATER (BECKHAM CO),EEQJ,0.058,0.045,0.003,0.01,0
OK,73667,TALOGA TOWN,BJYQ,0.0925,0.045,0.0175,0.03,0
OK,73668,BECKHAM COUNTY,BJSB,0.048,0.045,0.003,0,0
OK,73669,THOMAS,BJXX,0.09,0.045,0.005,0.04,0
OK,73673,GREER COUNTY,BKAT,0.065,0.045,0.02,0,0
OK,73701,ENID,BJZD,0.0835,0.045,0.0035,0.035,0
OK,73702,ENID,BJZD,0.0835,0.045,0.0035,0.035,0
OK,73703,ENID,BJZD,0.0835,0.045,0.0035,0.035,0
OK,73705,ENID,BJZD,0.0835,0.045,0.0035,0.035,0
OK,73716,ALINE TOWN,BJRB,0.095,0.045,0.02,0.03,0
OK,73717,ALVA,BKTD,0.0925,0.045,0.005,0.0425,0
OK,73718,AMES TOWN,BKGJ,0.0825,0.045,0.0075,0.03,0
OK,73719,ALFALFA COUNTY,BJRA,0.065,0.045,0.02,0,0
OK,73720,GARFIELD COUNTY,BJYX,0.0485,0.045,0.0035,0,0
OK,73722,BURLINGTON TOWN,BJRD,0.075,0.045,0.02,0.01,0
OK,73724,CANTON TOWN,BJSJ,0.0825,0.045,0.0075,0.03,0
OK,73726,CARMEN TOWN,BJRF,0.095,0.045,0.02,0.03,0
OK,73727,GARFIELD COUNTY,BJYX,0.0485,0.045,0.0035,0,0
OK,73728,CHEROKEE,BJRG,0.0975,0.045,0.02,0.0325,0
OK,73729,CLEO SPRINGS TOWN,BKGK,0.0825,0.045,0.0075,0.03,0
OK,73730,GARFIELD COUNTY,BJYX,0.0485,0.045,0.0035,0,0
OK,73731,WOODS COUNTY,BKTC,0.05,0.045,0.005,0,0
OK,73733,GARFIELD COUNTY,BJYX,0.0485,0.045,0.0035,0,0
OK,73734,DOVER TOWN,BKDP,0.0975,0.045,0.0125,0.04,0
OK,73735,GARFIELD COUNTY,BJYX,0.0485,0.045,0.0035,0,0
OK,73736,GARFIELD COUNTY,BJYX,0.0485,0.045,0.0035,0,0
OK,73737,FAIRVIEW,BKGM,0.0925,0.045,0.0075,0.04,0
OK,73738,GARFIELD COUNTY,BJYX,0.0485,0.045,0.0035,0,0
OK,73739,GOLTRY TOWN,BJRH,0.095,0.045,0.02,0.03,0
OK,73741,ALFALFA COUNTY,BJRA,0.065,0.045,0.02,0,0
OK,73742,HENNESSEY TOWN,BKDQ,0.0925,0.045,0.0125,0.035,0
OK,73743,HILLSDALE TOWN,BJZG,0.0585,0.045,0.0035,0.01,0
OK,73744,HITCHCOCK TOWN,BJSM,0.0825,0.045,0.0075,0.03,0
OK,73746,WOODS COUNTY,BKTC,0.05,0.045,0.005,0,0
OK,73747,FAIRVIEW,BKGM,0.0925,0.045,0.0075,0.04,0
OK,73749,JET TOWN,BJRJ,0.095,0.045,0.02,0.03,0
OK,73750,KINGFISHER,BKDR,0.0925,0.045,0.0125,0.035,0
OK,73753,GARFIELD COUNTY,BJYX,0.0485,0.045,0.0035,0,0
OK,73754,LAHOMA TOWN,BJZJ,0.0885,0.045,0.0035,0.04,0
OK,73755,LONGDALE TOWN,BJSO,0.0825,0.045,0.0075,0.03,0
OK,73756,LOYAL TOWN,BKDS,0.0775,0.045,0.0125,0.02,0
OK,73757,NOBLE COUNTY,BKJL,0.06,0.045,0.015,0,0
OK,73758,GRANT COUNTY,BKAK,0.0575,0.045,0.0125,0,0
OK,73759,MEDFORD,BKAN,0.0975,0.045,0.0125,0.04,0
OK,73760,MENO TOWN,BKGO,0.0825,0.045,0.0075,0.03,0
OK,73761,NASH TOWN,BKAP,0.0875,0.045,0.0125,0.03,0
OK,73762,CANADIAN COUNTY,BJTX,0.0485,0.045,0.0035,0,0
OK,73763,OKEENE TOWN,BJSP,0.095,0.045,0.0075,0.0425,0
OK,73764,KINGFISHER COUNTY,BKDN,0.0575,0.045,0.0125,0,0
OK,73766,POND CREEK,BKAQ,0.0975,0.045,0.0125,0.04,0
OK,73768,RINGWOOD,BKGP,0.0825,0.045,0.0075,0.03,0
OK,73770,BLAINE COUNTY,BJSI,0.0525,0.045,0.0075,0,0
OK,73771,WAKITA TOWN,BKAS,0.0975,0.045,0.0125,0.04,0
OK,73772,WATONGA,BJSR,0.1025,0.045,0.0075,0.05,0
OK,73773,WAUKOMIS TOWN,BJZL,0.0885,0.045,0.0035,0.04,0
OK,73801,WOODWARD,BKTO,0.09825,0.045,0.01325,0.04,0
OK,73832,ARNETT TOWN,BJYT,0.095,0.045,0.02,0.03,0
OK,73834,BUFFALO TOWN,BKBC,0.095,0.045,0.02,0.03,0
OK,73835,CAMARGO TOWN,BJYK,0.1025,0.045,0.0175,0.04,0
OK,73838,MAJOR COUNTY,BKGI,0.0525,0.045,0.0075,0,0
OK,73840,FARGO TOWN,BJYU,0.095,0.045,0.02,0.03,0
OK,73841,FORT SUPPLY TOWN,BKTK,0.08825,0.045,0.01325,0.03,0
OK,73842,FREEDOM TOWN,BKTG,0.07,0.045,0.005,0.02,0
OK,73843,GAGE TOWN,BJYV,0.095,0.045,0.02,0.03,0
OK,73844,BEAVER COUNTY,BJRS,0.065,0.045,0.02,0,0
OK,73848,LAVERNE TOWN,BKBD,0.0875,0.045,0.02,0.0225,0
OK,73851,HARPER COUNTY,BKBB,0.065,0.045,0.02,0,0
OK,73852,MOORELAND TOWN,BKTL,0.08825,0.045,0.01325,0.03,0
OK,73853,WOODWARD COUNTY,BKTJ,0.05825,0.045,0.01325,0,0
OK,73855,HARPER COUNTY,BKBB,0.065,0.045,0.02,0,0
OK,73857,WOODWARD COUNTY,BKTJ,0.05825,0.045,0.01325,0,0
OK,73858,SHATTUCK TOWN,BJYW,0.095,0.045,0.02,0.03,0
OK,73859,VICI TOWN,BJYR,0.1025,0.045,0.0175,0.04,0
OK,73860,WAYNOKA,BKTI,0.09,0.045,0.005,0.04,0
OK,73901,TEXAS COUNTY,BKQV,0.055,0.045,0.01,0,0
OK,73931,BEAVER COUNTY,BJRS,0.065,0.045,0.02,0,0
OK,73932,BEAVER,BJRT,0.095,0.045,0.02,0.03,0
OK,73933,BOISE,BJVN,0.095,0.045,0.02,0.03,0
OK,73937,CIMARRON COUNTY,BJVM,0.065,0.045,0.02,0,0
OK,73938,FORGAN TOWN,BJRW,0.095,0.045,0.02,0.03,0
OK,73939,GOODWELL,BKQX,0.085,0.045,0.01,0.03,0
OK,73942,GUYMON,BKQY,0.095,0.045,0.01,0.04,0
OK,73944,GUYMON,BKQY,0.095,0.045,0.01,0.04,0
OK,73945,HOOKER,BKQZ,0.095,0.045,0.01,0.04,0
OK,73946,CIMARRON COUNTY,BJVM,0.065,0.045,0.02,0,0
OK,73947,KEYES TOWN,BJVP,0.085,0.045,0.02,0.02,0
OK,73949,TEXHOMA TOWN,BKRB,0.085,0.045,0.01,0.03,0
OK,73950,BEAVER COUNTY,BJRS,0.065,0.045,0.02,0,0
OK,73951,TYRONE TOWN,BKRC,0.085,0.045,0.01,0.03,0
OK,74001,AVANT TOWN,BKLR,0.0775,0.045,0.0125,0.02,0
OK,74002,OSAGE COUNTY,BKLQ,0.0575,0.045,0.0125,0,0
OK,74003,BARTLESVILLE (WASHINGTON CO),BKSK,0.085,0.045,0.01,0.03,0
OK,74004,BARTLESVILLE (WASHINGTON CO),BKSK,0.085,0.045,0.01,0.03,0
OK,74005,BARTLESVILLE (WASHINGTON CO),BKSK,0.085,0.045,0.01,0.03,0
OK,74006,BARTLESVILLE (WASHINGTON CO),BKSK,0.085,0.045,0.01,0.03,0
OK,74008,BIXBY (TULSA CO),BKRN,0.08917,0.045,0.00917,0.035,0
OK,74010,CREEK COUNTY,BJXD,0.055,0.045,0.01,0,0
OK,74011,BROKEN ARROW (TULSA CO),BKRO,0.08417,0.045,0.00917,0.03,0
OK,74012,BROKEN ARROW (TULSA CO),BKRO,0.08417,0.045,0.00917,0.03,0
OK,74013,BROKEN ARROW (TULSA CO),BKRO,0.08417,0.045,0.00917,0.03,0
OK,74014,WAGONER COUNTY,BKRZ,0.058,0.045,0.013,0,0
OK,74015,CATOOSA (ROGERS CO),BKPK,0.09583,0.045,0.01833,0.0325,0
OK,74016,ROGERS COUNTY,BKPJ,0.06333,0.045,0.01833,0,0
OK,74017,CLAREMORE,BKPM,0.09333,0.045,0.01833,0.03,0
OK,74018,CLAREMORE,BKPM,0.09333,0.045,0.01833,0.03,0
OK,74019,ROGERS COUNTY,BKPJ,0.06333,0.045,0.01833,0,0
OK,74020,CLEVELAND,BKMS,0.1,0.045,0.02,0.035,0
OK,74021,COLLINSVILLE (TULSA CO),BKRP,0.09167,0.045,0.00917,0.0375,0
OK,74022,WASHINGTON COUNTY,BKSJ,0.055,0.045,0.01,0,0
OK,74023,CUSHING,BKNA,0.09313,0.045,0.00813,0.04,0
OK,74026,DAVENPORT TOWN,BKFJ,0.095,0.045,0.01,0.04,0
OK,74027,DELAWARE TOWN,BKJT,0.085,0.045,0.02,0.02,0
OK,74028,CREEK COUNTY,BJXD,0.055,0.045,0.01,0,0
OK,74029,DEWEY,BKSM,0.085,0.045,0.01,0.03,0
OK,74030,DRUMRIGHT (CREEK CO),BJXG,0.1,0.045,0.01,0.045,0
OK,74031,FOYIL TOWN,BKPO,0.10333,0.045,0.01833,0.04,0
OK,74032,PAYNE COUNTY,BKMZ,0.05313,0.045,0.00813,0,0
OK,74033,GLENPOOL,BKRQ,0.09417,0.045,0.00917,0.04,0
OK,74034,HALLETT TOWN,BKMT,0.11,0.045,0.02,0.045,0
OK,74035,HOMINY,BKLW,0.0925,0.045,0.0125,0.035,0
OK,74036,ROGERS COUNTY,BKPJ,0.06333,0.045,0.01833,0,0
OK,74037,JENKS,BKRR,0.08417,0.045,0.00917,0.03,0
OK,74038,PAWNEE COUNTY,BKMR,0.065,0.045,0.02,0,0
OK,74039,CREEK COUNTY,BJXD,0.055,0.045,0.01,0,0
OK,74041,KIEFER TOWN,BJXI,0.095,0.045,0.01,0.04,0
OK,74042,LENAPAH TOWN,BKJU,0.085,0.045,0.02,0.02,0
OK,74043,TULSA COUNTY,BKRM,0.05417,0.045,0.00917,0,0
OK,74044,CREEK COUNTY,BJXD,0.055,0.045,0.01,0,0
OK,74045,PAWNEE COUNTY,BKMR,0.065,0.045,0.02,0,0
OK,74046,CREEK COUNTY,BJXD,0.055,0.045,0.01,0,0
OK,74047,OKMULGEE COUNTY,BKLF,0.0575,0.045,0.0125,0,0
OK,74048,NOWATA,BKJV,0.095,0.045,0.02,0.03,0
OK,74050,TULSA COUNTY,BKRM,0.05417,0.045,0.00917,0,0
OK,74051,WASHINGTON COUNTY,BKSJ,0.055,0.045,0.01,0,0
OK,74052,OILTON,BJXM,0.105,0.045,0.01,0.05,0
OK,74053,ROGERS COUNTY,BKPJ,0.06333,0.045,0.01833,0,0
OK,74054,OSAGE COUNTY,BKLQ,0.0575,0.045,0.0125,0,0
OK,74055,OWASSO (TULSA CO),BKRT,0.08917,0.045,0.00917,0.035,0
OK,74056,PAWHUSKA,BKLY,0.0875,0.045,0.0125,0.03,0
OK,74058,PAWNEE COUNTY,BKMR,0.065,0.045,0.02,0,0
OK,74059,PAYNE COUNTY,BKMZ,0.05313,0.045,0.00813,0,0
OK,74060,PRUE TOWN,BKLZ,0.0875,0.045,0.0125,0.03,0
OK,74061,WASHINGTON COUNTY,BKSJ,0.055,0.045,0.01,0,0
OK,74062,PAYNE COUNTY,BKMZ,0.05313,0.045,0.00813,0,0
OK,74063,SAND SPRINGS (TULSA CO),BKRX,0.08917,0.045,0.00917,0.035,0
OK,74066,SAPULPA (CREEK CO),BJXN,0.095,0.045,0.01,0.04,0
OK,74067,SAPULPA (CREEK CO),BJXN,0.095,0.045,0.01,0.04,0
OK,74068,SHAMROCK TOWN,BJXP,0.085,0.045,0.01,0.03,0
OK,74070,OSAGE COUNTY,BKLQ,0.0575,0.045,0.0125,0,0
OK,74071,SLICK TOWN,BJXO,0.085,0.045,0.01,0.03,0
OK,74072,SOUTH COFFEYVILLE,BKJX,0.085,0.045,0.02,0.02,0
OK,74073,OSAGE COUNTY,BKLQ,0.0575,0.045,0.0125,0,0
OK,74074,STILLWATER,BKNE,0.08813,0.045,0.00813,0.035,0
OK,74075,STILLWATER,BKNE,0.08813,0.045,0.00813,0.035,0
OK,74076,STILLWATER,BKNE,0.08813,0.045,0.00813,0.035,0
OK,74077,STILLWATER,BKNE,0.08813,0.045,0.00813,0.035,0
OK,74078,STILLWATER,BKNE,0.08813,0.045,0.00813,0.035,0
OK,74079,STROUD,BKFO,0.095,0.045,0.01,0.04,0
OK,74080,ROGERS COUNTY,BKPJ,0.06333,0.045,0.01833,0,0
OK,74081,PAWNEE COUNTY,BKMR,0.065,0.045,0.02,0,0
OK,74082,VERA TOWN,BKSP,0.075,0.045,0.01,0.02,0
OK,74083,WANN TOWN,BKJZ,0.085,0.045,0.02,0.02,0
OK,74084,OSAGE COUNTY,BKLQ,0.0575,0.045,0.0125,0,0
OK,74085,PAYNE COUNTY,BKMZ,0.05313,0.045,0.00813,0,0
OK,74101,TULSA (TULSA CO),BKRY,0.08517,0.045,0.00917,0.031,0
OK,74103,TULSA (TULSA CO),BKRY,0.08517,0.045,0.00917,0.031,0
OK,74104,TULSA (TULSA CO),BKRY,0.08517,0.045,0.00917,0.031,0
OK,74105,TULSA (TULSA CO),BKRY,0.08517,0.045,0.00917,0.031,0
OK,74106,TULSA (TULSA CO),BKRY,0.08517,0.045,0.00917,0.031,0
OK,74107,TULSA (TULSA CO),BKRY,0.08517,0.045,0.00917,0.031,0
OK,74108,TULSA (TULSA CO),BKRY,0.08517,0.045,0.00917,0.031,0
OK,74110,TULSA (TULSA CO),BKRY,0.08517,0.045,0.00917,0.031,0
OK,74112,TULSA (TULSA CO),BKRY,0.08517,0.045,0.00917,0.031,0
OK,74114,TULSA (TULSA CO),BKRY,0.08517,0.045,0.00917,0.031,0
OK,74115,TULSA (TULSA CO),BKRY,0.08517,0.045,0.00917,0.031,0
OK,74116,TULSA (TULSA CO),BKRY,0.08517,0.045,0.00917,0.031,0
OK,74117,TULSA COUNTY,BKRM,0.05417,0.045,0.00917,0,0
OK,74119,TULSA (TULSA CO),BKRY,0.08517,0.045,0.00917,0.031,0
OK,74120,TULSA (TULSA CO),BKRY,0.08517,0.045,0.00917,0.031,0
OK,74126,TULSA (TULSA CO),BKRY,0.08517,0.045,0.00917,0.031,0
OK,74127,TULSA (TULSA CO),BKRY,0.08517,0.045,0.00917,0.031,0
OK,74128,TULSA (TULSA CO),BKRY,0.08517,0.045,0.00917,0.031,0
OK,74129,TULSA (TULSA CO),BKRY,0.08517,0.045,0.00917,0.031,0
OK,74130,TULSA COUNTY,BKRM,0.05417,0.045,0.00917,0,0
OK,74131,CREEK COUNTY,BJXD,0.055,0.045,0.01,0,0
OK,74132,TULSA (TULSA CO),BKRY,0.08517,0.045,0.00917,0.031,0
OK,74133,TULSA (TULSA CO),BKRY,0.08517,0.045,0.00917,0.031,0
OK,74134,TULSA (TULSA CO),BKRY,0.08517,0.045,0.00917,0.031,0
OK,74135,TULSA (TULSA CO),BKRY,0.08517,0.045,0.00917,0.031,0
OK,74136,TULSA (TULSA CO),BKRY,0.08517,0.045,0.00917,0.031,0
OK,74137,TULSA (TULSA CO),BKRY,0.08517,0.045,0.00917,0.031,0
OK,74141,TULSA (TULSA CO),BKRY,0.08517,0.045,0.00917,0.031,0
OK,74145,TULSA (TULSA CO),BKRY,0.08517,0.045,0.00917,0.031,0
OK,74146,TULSA (TULSA CO),BKRY,0.08517,0.045,0.00917,0.031,0
OK,74147,TULSA (TULSA CO),BKRY,0.08517,0.045,0.00917,0.031,0
OK,74148,TULSA (TULSA CO),BKRY,0.08517,0.045,0.00917,0.031,0
OK,74149,TULSA (TULSA CO),BKRY,0.08517,0.045,0.00917,0.031,0
OK,74150,TULSA (TULSA CO),BKRY,0.08517,0.045,0.00917,0.031,0
OK,74152,TULSA (TULSA CO),BKRY,0.08517,0.045,0.00917,0.031,0
OK,74153,TULSA (TULSA CO),BKRY,0.08517,0.045,0.00917,0.031,0
OK,74155,TULSA (TULSA CO),BKRY,0.08517,0.045,0.00917,0.031,0
OK,74156,TULSA (TULSA CO),BKRY,0.08517,0.045,0.00917,0.031,0
OK,74157,TULSA (TULSA CO),BKRY,0.08517,0.045,0.00917,0.031,0
OK,74158,TULSA (TULSA CO),BKRY,0.08517,0.045,0.00917,0.031,0
OK,74159,TULSA (TULSA CO),BKRY,0.08517,0.045,0.00917,0.031,0
OK,74169,TULSA (TULSA CO),BKRY,0.08517,0.045,0.00917,0.031,0
OK,74170,TULSA (TULSA CO),BKRY,0.08517,0.045,0.00917,0.031,0
OK,74171,TULSA (TULSA CO),BKRY,0.08517,0.045,0.00917,0.031,0
OK,74172,TULSA (TULSA CO),BKRY,0.08517,0.045,0.00917,0.031,0
OK,74182,TULSA (TULSA CO),BKRY,0.08517,0.045,0.00917,0.031,0
OK,74186,TULSA (TULSA CO),BKRY,0.08517,0.045,0.00917,0.031,0
OK,74187,TULSA (TULSA CO),BKRY,0.08517,0.045,0.00917,0.031,0
OK,74192,TULSA (TULSA CO),BKRY,0.08517,0.045,0.00917,0.031,0
OK,74193,TULSA (TULSA CO),BKRY,0.08517,0.045,0.00917,0.031,0
OK,74301,CRAIG COUNTY,BJWX,0.065,0.045,0.02,0,0
OK,74330,MAYES COUNTY,BKGV,0.06,0.045,0.015,0,0
OK,74331,DELAWARE COUNTY,BJXZ,0.059,0.045,0.014,0,0
OK,74332,CRAIG COUNTY,BJWX,0.065,0.045,0.02,0,0
OK,74333,CRAIG COUNTY,BJWX,0.065,0.045,0.02,0,0
OK,74335,OTTAWA COUNTY,BKMG,0.0585,0.045,0.0135,0,0
OK,74337,MAYES COUNTY,BKGV,0.06,0.045,0.015,0,0
OK,74338,DELAWARE COUNTY,BJXZ,0.059,0.045,0.014,0,0
OK,74339,COMMERCE,BKMI,0.0985,0.045,0.0135,0.04,0
OK,74340,DISNEY TOWN,BKGY,0.09875,0.045,0.015,0.03875,0
OK,74342,DELAWARE COUNTY,BJXZ,0.059,0.045,0.014,0,0
OK,74343,OTTAWA COUNTY,BKMG,0.0585,0.045,0.0135,0,0
OK,74344,DELAWARE COUNTY,BJXZ,0.059,0.045,0.014,0,0
OK,74345,GROVE,BJYD,0.093,0.045,0.014,0.034,0
OK,74346,DELAWARE COUNTY,BJXZ,0.059,0.045,0.014,0,0
OK,74347,DELAWARE COUNTY,BJXZ,0.059,0.045,0.014,0,0
OK,74349,KETCHUM TOWN,BJXA,0.095,0.045,0.02,0.03,0
OK,74350,LANGLEY TOWN,BKHA,0.09,0.045,0.015,0.03,0
OK,74352,MAYES COUNTY,BKGV,0.06,0.045,0.015,0,0
OK,74354,MIAMI,BKMM,0.095,0.045,0.0135,0.0365,0
OK,74358,NORTH MIAMI TOWN,BKMN,0.0885,0.045,0.0135,0.03,0
OK,74359,OAKS (DELAWARE CO),BJYG,0.089,0.045,0.014,0.03,0
OK,74360,OTTAWA COUNTY,BKMG,0.0585,0.045,0.0135,0,0
OK,74361,MAYES COUNTY,BKGV,0.06,0.045,0.015,0,0
OK,74363,OTTAWA COUNTY,BKMG,0.0585,0.045,0.0135,0,0
OK,74364,DELAWARE COUNTY,BJXZ,0.059,0.045,0.014,0,0
OK,74365,MAYES COUNTY,BKGV,0.06,0.045,0.015,0,0
OK,74366,MAYES COUNTY,BKGV,0.06,0.045,0.015,0,0
OK,74367,MAYES COUNTY,BKGV,0.06,0.045,0.015,0,0
OK,74368,DELAWARE COUNTY,BJXZ,0.059,0.045,0.014,0,0
OK,74369,CRAIG COUNTY,BJWX,0.065,0.045,0.02,0,0
OK,74370,OTTAWA COUNTY,BKMG,0.0585,0.045,0.0135,0,0
OK,74401,MUSKOGEE,BKJD,0.0915,0.045,0.0065,0.04,0
OK,74402,MUSKOGEE,BKJD,0.0915,0.045,0.0065,0.04,0
OK,74403,MUSKOGEE,BKJD,0.0915,0.045,0.0065,0.04,0
OK,74421,OKMULGEE COUNTY,BKLF,0.0575,0.045,0.0125,0,0
OK,74422,OKMULGEE COUNTY,BKLF,0.0575,0.045,0.0125,0,0
OK,74423,BRAGGS TOWN,BKIZ,0.0815,0.045,0.0065,0.03,0
OK,74425,PITTSBURG COUNTY,BKNG,0.05,0.045,0.005,0,0
OK,74426,CHECOTAH,BKIN,0.105,0.045,0.02,0.04,0
OK,74427,CHEROKEE COUNTY,BJUV,0.0625,0.045,0.0175,0,0
OK,74428,COUNCIL HILL TOWN,BKJA,0.0715,0.045,0.0065,0.02,0
OK,74429,WAGONER COUNTY,BKRZ,0.058,0.045,0.013,0,0
OK,74430,CROWDER TOWN,BKNM,0.09,0.045,0.005,0.04,0
OK,74431,DEWAR TOWN,BKLH,0.0975,0.045,0.0125,0.04,0
OK,74432,EUFAULA,BKIO,0.1,0.045,0.02,0.035,0
OK,74434,CHEROKEE COUNTY,BJUV,0.0625,0.045,0.0175,0,0
OK,74435,GORE TOWN,BKQG,0.08917,0.045,0.01417,0.03,0
OK,74436,HASKELL TOWN,BKJC,0.095,0.045,0.0065,0.0435,0
OK,74437,HENRYETTA,BKLJ,0.0975,0.045,0.0125,0.04,0
OK,74438,MCINTOSH COUNTY,BKIM,0.065,0.045,0.02,0,0
OK,74439,BRAGGS TOWN,BKIZ,0.0815,0.045,0.0065,0.03,0
OK,74441,CHEROKEE COUNTY,BJUV,0.0625,0.045,0.0175,0,0
OK,74442,PITTSBURG COUNTY,BKNG,0.05,0.045,0.005,0,0
OK,74444,CHEROKEE COUNTY,BJUV,0.0625,0.045,0.0175,0,0
OK,74445,OKMULGEE COUNTY,BKLF,0.0575,0.045,0.0125,0,0
OK,74446,OKAY TOWN,BKSE,0.098,0.045,0.013,0.04,0
OK,74447,OKMULGEE,BKLL,0.0975,0.045,0.0125,0.04,0
OK,74450,MUSKOGEE COUNTY,BKIX,0.0515,0.045,0.0065,0,0
OK,74451,CHEROKEE COUNTY,BJUV,0.0625,0.045,0.0175,0,0
OK,74452,CHEROKEE COUNTY,BJUV,0.0625,0.045,0.0175,0,0
OK,74454,WAGONER COUNTY,BKRZ,0.058,0.045,0.013,0,0
OK,74455,PORUM TOWN,BKJF,0.0915,0.045,0.0065,0.04,0
OK,74456,OKMULGEE COUNTY,BKLF,0.0575,0.045,0.0125,0,0
OK,74457,CHEROKEE COUNTY,BJUV,0.0625,0.045,0.0175,0,0
OK,74458,WAGONER COUNTY,BKRZ,0.058,0.045,0.013,0,0
OK,74459,RENTIESVILLE TOWN,BKIR,0.105,0.045,0.02,0.04,0
OK,74460,SCHULTER TOWN,BKLO,0.0625,0.045,0.0125,0.005,0
OK,74461,MCINTOSH COUNTY,BKIM,0.065,0.045,0.02,0,0
OK,74462,STIGLER,BKBN,0.095,0.045,0.02,0.03,0
OK,74463,MUSKOGEE COUNTY,BKIX,0.0515,0.045,0.0065,0,0
OK,74464,TAHLEQUAH,BJVB,0.095,0.045,0.0175,0.0325,0
OK,74465,TAHLEQUAH,BJVB,0.095,0.045,0.0175,0.0325,0
OK,74467,WAGONER,BKSI,0.088,0.045,0.013,0.03,0
OK,74468,WAINWRIGHT TOWN,BKJK,0.0915,0.045,0.0065,0.04,0
OK,74469,WARNER TOWN,BKJI,0.0915,0.045,0.0065,0.04,0
OK,74470,WEBBERS FALLS TOWN,BKJJ,0.0865,0.045,0.0065,0.035,0
OK,74471,CHEROKEE COUNTY,BJUV,0.0625,0.045,0.0175,0,0
OK,74472,WHITEFIELD TOWN,BKBP,0.095,0.045,0.02,0.03,0
OK,74501,MCALESTER,BKNT,0.085,0.045,0.005,0.035,0
OK,74521,PUSHMATAHA COUNTY,BKOS,0.065,0.045,0.02,0,0
OK,74522,ALDERSON TOWN,BKNH,0.07,0.045,0.005,0.02,0
OK,74523,ANTLERS,BKOT,0.1,0.045,0.02,0.035,0
OK,74525,ATOKA,BJRL,0.095,0.045,0.02,0.03,0
OK,74528,PITTSBURG COUNTY,BKNG,0.05,0.045,0.005,0,0
OK,74529,PITTSBURG COUNTY,BKNG,0.05,0.045,0.005,0,0
OK,74530,JOHNSTON COUNTY,BKCU,0.06,0.045,0.015,0,0
OK,74531,HUGHES COUNTY,BKBQ,0.0475,0.045,0.0025,0,0
OK,74533,ATOKA COUNTY,BJRK,0.065,0.045,0.02,0,0
OK,74534,COAL COUNTY,BJVZ,0.065,0.045,0.02,0,0
OK,74535,COAL COUNTY,BJVZ,0.065,0.045,0.02,0,0
OK,74536,CLAYTON TOWN,BKOV,0.105,0.045,0.02,0.04,0
OK,74538,COALGATE,BJWA,0.095,0.045,0.02,0.03,0
OK,74540,ATOKA COUNTY,BJRK,0.065,0.045,0.02,0,0
OK,74543,PUSHMATAHA COUNTY,BKOS,0.065,0.045,0.02,0,0
OK,74545,LATIMER COUNTY,BKEE,0.0625,0.045,0.0175,0,0
OK,74546,HAILEYVILLE,BKNN,0.08,0.045,0.005,0.03,0
OK,74547,HARTSHORNE,BKNO,0.0825,0.045,0.005,0.0325,0
OK,74549,LEFLORE COUNTY,BKEL,0.065,0.045,0.02,0,0
OK,74552,HASKELL COUNTY,BKBH,0.065,0.045,0.02,0,0
OK,74553,KIOWA TOWN,BKNR,0.1,0.045,0.005,0.05,0
OK,74554,KREBS,BKNS,0.09,0.045,0.005,0.04,0
OK,74555,ATOKA COUNTY,BJRK,0.065,0.045,0.02,0,0
OK,74556,LEHIGH,BJWD,0.085,0.045,0.02,0.02,0
OK,74557,PUSHMATAHA COUNTY,BKOS,0.065,0.045,0.02,0,0
OK,74558,PUSHMATAHA COUNTY,BKOS,0.065,0.045,0.02,0,0
OK,74559,LATIMER COUNTY,BKEE,0.0625,0.045,0.0175,0,0
OK,74560,PITTSBURG COUNTY,BKNG,0.05,0.045,0.005,0,0
OK,74561,PITTSBURG COUNTY,BKNG,0.05,0.045,0.005,0,0
OK,74562,RATTAN TOWN,BKOZ,0.1,0.045,0.02,0.035,0
OK,74563,LATIMER COUNTY,BKEE,0.0625,0.045,0.0175,0,0
OK,74565,SAVANNA TOWN,BKNW,0.1,0.045,0.005,0.05,0
OK,74567,PUSHMATAHA COUNTY,BKOS,0.065,0.045,0.02,0,0
OK,74569,ATOKA COUNTY,BJRK,0.065,0.045,0.02,0,0
OK,74570,PITTSBURG COUNTY,BKNG,0.05,0.045,0.005,0,0
OK,74571,TALIHINA TOWN,BKFC,0.095,0.045,0.02,0.03,0
OK,74572,TUPELO,BJWE,0.095,0.045,0.02,0.03,0
OK,74574,LATIMER COUNTY,BKEE,0.0625,0.045,0.0175,0,0
OK,74576,PITTSBURG COUNTY,BKNG,0.05,0.045,0.005,0,0
OK,74577,LEFLORE COUNTY,BKEL,0.065,0.045,0.02,0,0
OK,74578,LATIMER COUNTY,BKEE,0.0625,0.045,0.0175,0,0
OK,74601,PONCA,BKDL,0.08667,0.045,0.00667,0.035,0
OK,74602,PONCA,BKDL,0.08667,0.045,0.00667,0.035,0
OK,74604,PONCA,BKDL,0.08667,0.045,0.00667,0.035,0
OK,74630,NOBLE COUNTY,BKJL,0.06,0.045,0.015,0,0
OK,74631,BLACKWELL,BKDG,0.09167,0.045,0.00667,0.04,0
OK,74632,KAY COUNTY,BKDF,0.05167,0.045,0.00667,0,0
OK,74633,OSAGE COUNTY,BKLQ,0.0575,0.045,0.0125,0,0
OK,74636,GRANT COUNTY,BKAK,0.0575,0.045,0.0125,0,0
OK,74637,FAIRFAX TOWN,BKLV,0.0875,0.045,0.0125,0.03,0
OK,74640,GARFIELD COUNTY,BJYX,0.0485,0.045,0.0035,0,0
OK,74641,KAY COUNTY,BKDF,0.05167,0.045,0.00667,0,0
OK,74643,LAMONT TOWN,BKAM,0.0975,0.045,0.0125,0.04,0
OK,74644,NOBLE COUNTY,BKJL,0.06,0.045,0.015,0,0
OK,74646,KAY COUNTY,BKDF,0.05167,0.045,0.00667,0,0
OK,74647,KAY COUNTY,BKDF,0.05167,0.045,0.00667,0,0
OK,74650,RALSTON TOWN,BKMX,0.095,0.045,0.02,0.03,0
OK,74651,NOBLE COUNTY,BKJL,0.06,0.045,0.015,0,0
OK,74652,OSAGE COUNTY,BKLQ,0.0575,0.045,0.0125,0,0
OK,74653,TONKAWA,BKDM,0.09667,0.045,0.00667,0.045,0
OK,74701,DURANT,BJTC,0.09375,0.045,0.005,0.04375,0
OK,74702,DURANT,BJTC,0.09375,0.045,0.005,0.04375,0
OK,74720,ACHILLE TOWN,BJST,0.08,0.045,0.005,0.03,0
OK,74721,BRYAN COUNTY,BJSS,0.05,0.045,0.005,0,0
OK,74722,MCCURTAIN COUNTY,BKHV,0.0625,0.045,0.0175,0,0
OK,74723,BRYAN COUNTY,BJSS,0.05,0.045,0.005,0,0
OK,74724,MCCURTAIN COUNTY,BKHV,0.0625,0.045,0.0175,0,0
OK,74726,BRYAN COUNTY,BJSS,0.05,0.045,0.005,0,0
OK,74727,BOSWELL TOWN,BJVE,0.095,0.045,0.02,0.03,0
OK,74728,BROKEN BOW,BKHW,0.0925,0.045,0.0175,0.03,0
OK,74729,BRYAN COUNTY,BJSS,0.05,0.045,0.005,0,0
OK,74730,BRYAN COUNTY,BJSS,0.05,0.045,0.005,0,0
OK,74731,BRYAN COUNTY,BJSS,0.05,0.045,0.005,0,0
OK,74733,BRYAN COUNTY,BJSS,0.05,0.045,0.005,0,0
OK,74734,MCCURTAIN COUNTY,BKHV,0.0625,0.045,0.0175,0,0
OK,74735,FORT TOWSON TOWN,BJVF,0.1,0.045,0.02,0.035,0
OK,74736,MCCURTAIN COUNTY,BKHV,0.0625,0.045,0.0175,0,0
OK,74737,MCCURTAIN COUNTY,BKHV,0.0625,0.045,0.0175,0,0
OK,74738,CHOCTAW COUNTY,BJVD,0.065,0.045,0.02,0,0
OK,74740,HAWORTH TOWN,BKIC,0.0975,0.045,0.0175,0.035,0
OK,74741,BRYAN COUNTY,BJSS,0.05,0.045,0.005,0,0
OK,74743,HUGO,BJVH,0.1,0.045,0.02,0.035,0
OK,74745,IDABEL,BKID,0.0925,0.045,0.0175,0.03,0
OK,74748,JOHNSTON COUNTY,BKCU,0.06,0.045,0.015,0,0
OK,74750,MILLERTON TOWN,BKIE,0.0925,0.045,0.0175,0.03,0
OK,74752,MCCURTAIN COUNTY,BKHV,0.0625,0.045,0.0175,0,0
OK,74753,BRYAN COUNTY,BJSS,0.05,0.045,0.005,0,0
OK,74754,MCCURTAIN COUNTY,BKHV,0.0625,0.045,0.0175,0,0
OK,74755,MCCURTAIN COUNTY,BKHV,0.0625,0.045,0.0175,0,0
OK,74756,SAWYER TOWN,BJVJ,0.075,0.045,0.02,0.01,0
OK,74759,SOPER TOWN,BJVI,0.085,0.045,0.02,0.02,0
OK,74760,CHOCTAW COUNTY,BJVD,0.065,0.045,0.02,0,0
OK,74761,CHOCTAW COUNTY,BJVD,0.065,0.045,0.02,0,0
OK,74764,VALLIANT TOWN,BKIJ,0.0925,0.045,0.0175,0.03,0
OK,74766,WRIGHT TOWN,BKIK,0.0925,0.045,0.0175,0.03,0
OK,74801,SHAWNEE,BKOO,0.085,0.045,0.01,0.03,0
OK,74802,SHAWNEE,BKOO,0.085,0.045,0.01,0.03,0
OK,74804,SHAWNEE,BKOO,0.085,0.045,0.01,0.03,0
OK,74820,ADA,BKNZ,0.09375,0.045,0.00875,0.04,0
OK,74821,ADA,BKNZ,0.09375,0.045,0.00875,0.04,0
OK,74824,LINCOLN COUNTY,BKFF,0.055,0.045,0.01,0,0
OK,74825,ALLEN (PONTOTOC CO),BKOA,0.08375,0.045,0.00875,0.03,0
OK,74826,POTTAWATOMIE COUNTY,BKOH,0.055,0.045,0.01,0,0
OK,74827,HUGHES COUNTY,BKBQ,0.0475,0.045,0.0025,0,0
OK,74829,BOLEY TOWN,BKKB,0.0875,0.045,0.0125,0.03,0
OK,74830,BOWLEGS TOWN,BKPW,0.0875,0.045,0.0125,0.03,0
OK,74831,MCCLAIN COUNTY,BKHK,0.05,0.045,0.005,0,0
OK,74832,CARNEY TOWN,BKFH,0.095,0.045,0.01,0.04,0
OK,74833,CASTLE TOWN,BKKC,0.0875,0.045,0.0125,0.03,0
OK,74834,LINCOLN COUNTY,BKFF,0.055,0.045,0.01,0,0
OK,74836,JOHNSTON COUNTY,BKCU,0.06,0.045,0.015,0,0
OK,74837,CROMWELL TOWN,BKPX,0.0875,0.045,0.0125,0.03,0
OK,74839,HUGHES COUNTY,BKBQ,0.0475,0.045,0.0025,0,0
OK,74840,POTTAWATOMIE COUNTY,BKOH,0.055,0.045,0.01,0,0
OK,74842,PONTOTOC COUNTY,BKNY,0.05375,0.045,0.00875,0,0
OK,74843,PONTOTOC COUNTY,BKNY,0.05375,0.045,0.00875,0,0
OK,74844,FRANCIS TOWN,BKOC,0.08375,0.045,0.00875,0.03,0
OK,74845,HANNA TOWN,BKIP,0.105,0.045,0.02,0.04,0
OK,74848,HOLDENVILLE,BKBV,0.0975,0.045,0.0025,0.05,0
OK,74849,KONAWA,BKPZ,0.0975,0.045,0.0125,0.04,0
OK,74850,LAMAR TOWN,BKBW,0.0775,0.045,0.0025,0.03,0
OK,74851,MCLOUD TOWN,BKOL,0.095,0.045,0.01,0.04,0
OK,74852,POTTAWATOMIE COUNTY,BKOH,0.055,0.045,0.01,0,0
OK,74854,MAUD (POTTAWATOMIE CO),BKOK,0.095,0.045,0.01,0.04,0
OK,74855,LINCOLN COUNTY,BKFF,0.055,0.045,0.01,0,0
OK,74856,JOHNSTON COUNTY,BKCU,0.06,0.045,0.015,0,0
OK,74857,OKLAHOMA CITY (CLEVELAND CO),BJVX,0.08625,0.045,0.0025,0.03875,0
OK,74859,OKEMAH,BKKE,0.0925,0.045,0.0125,0.035,0
OK,74860,OKFUSKEE COUNTY,BKKA,0.0575,0.045,0.0125,0,0
OK,74864,PRAGUE,BKFM,0.095,0.045,0.01,0.04,0
OK,74865,PONTOTOC COUNTY,BKNY,0.05375,0.045,0.00875,0,0
OK,74866,POTTAWATOMIE COUNTY,BKOH,0.055,0.045,0.01,0,0
OK,74867,SEMINOLE COUNTY,BKPV,0.0575,0.045,0.0125,0,0
OK,74868,SEMINOLE,BKQC,0.0975,0.045,0.0125,0.04,0
OK,74869,LINCOLN COUNTY,BKFF,0.055,0.045,0.01,0,0
OK,74871,PONTOTOC COUNTY,BKNY,0.05375,0.045,0.00875,0,0
OK,74872,STRATFORD TOWN,BJZW,0.0925,0.045,0.0075,0.04,0
OK,74873,TECUMSEH,BKOQ,0.085,0.045,0.01,0.03,0
OK,74875,LINCOLN COUNTY,BKFF,0.055,0.045,0.01,0,0
OK,74878,POTTAWATOMIE COUNTY,BKOH,0.055,0.045,0.01,0,0
OK,74880,OKFUSKEE COUNTY,BKKA,0.0575,0.045,0.0125,0,0
OK,74881,LINCOLN COUNTY,BKFF,0.055,0.045,0.01,0,0
OK,74883,WETUMKA,BKBY,0.0975,0.045,0.0025,0.05,0
OK,74884,WEWOKA,BKQD,0.0975,0.045,0.0125,0.04,0
OK,74901,ARKOMA TOWN,BKEM,0.095,0.045,0.02,0.03,0
OK,74902,POCOLA TOWN,BKEY,0.095,0.045,0.02,0.03,0
OK,74930,LEFLORE COUNTY,BKEL,0.065,0.045,0.02,0,0
OK,74931,CHEROKEE COUNTY,BJUV,0.0625,0.045,0.0175,0,0
OK,74932,LEFLORE COUNTY,BKEL,0.065,0.045,0.02,0,0
OK,74935,FANSHAWE (LE FLORE CO),BKEP,0.095,0.045,0.02,0.03,0
OK,74936,SEQUOYAH COUNTY,BKQE,0.05917,0.045,0.01417,0,0
OK,74937,LEFLORE COUNTY,BKEL,0.065,0.045,0.02,0,0
OK,74939,LEFLORE COUNTY,BKEL,0.065,0.045,0.02,0,0
OK,74940,LEFLORE COUNTY,BKEL,0.065,0.045,0.02,0,0
OK,74941,HASKELL COUNTY,BKBH,0.065,0.045,0.02,0,0
OK,74942,LE FLORE TOWN,BKEU,0.075,0.045,0.02,0.01,0
OK,74943,HASKELL COUNTY,BKBH,0.065,0.045,0.02,0,0
OK,74944,HASKELL COUNTY,BKBH,0.065,0.045,0.02,0,0
OK,74945,MARBLE TOWN,BKQH,0.08917,0.045,0.01417,0.03,0
OK,74946,MOFFETT TOWN,BKQI,0.07917,0.045,0.01417,0.02,0
OK,74947,LEFLORE COUNTY,BKEL,0.065,0.045,0.02,0,0
OK,74948,SEQUOYAH COUNTY,BKQE,0.05917,0.045,0.01417,0,0
OK,74949,LEFLORE COUNTY,BKEL,0.065,0.045,0.02,0,0
OK,74951,PANAMA TOWN,BKEX,0.095,0.045,0.02,0.03,0
OK,74953,POTEAU,BKEZ,0.095,0.045,0.02,0.03,0
OK,74954,ROLAND TOWN,BKQK,0.09917,0.045,0.01417,0.04,0
OK,74955,SALLISAW,BKQL,0.09917,0.045,0.01417,0.04,0
OK,74956,LEFLORE COUNTY,BKEL,0.065,0.045,0.02,0,0
OK,74957,LEFLORE COUNTY,BKEL,0.065,0.045,0.02,0,0
OK,74959,LEFLORE COUNTY,BKEL,0.065,0.045,0.02,0,0
OK,74960,STILWELL,BJQX,0.0975,0.045,0.0175,0.035,0
OK,74962,SEQUOYAH COUNTY,BKQE,0.05917,0.045,0.01417,0,0
OK,74963,MCCURTAIN COUNTY,BKHV,0.0625,0.045,0.0175,0,0
OK,74964,WATTS TOWN,BJQY,0.1025,0.045,0.0175,0.04,0
OK,74965,WESTVILLE TOWN,BJQZ,0.1,0.045,0.0175,0.0375,0
OK,74966,LEFLORE COUNTY,BKEL,0.065,0.045,0.02,0,0
